<?xml version="1.0" encoding="UTF-8" standalone="no"?>
<!-- Copyright 2000-2021 JetBrains s.r.o. Use of this source code is governed by the Apache 2.0 license that can be found in the LICENSE file. -->

<svg
   width="16"
   height="16"
   viewBox="0 0 16 16"
   version="1.1"
   id="svg26"
   sodipodi:docname="caret_dark.svg"
   inkscape:version="1.2.2 (b0a8486541, 2022-12-01)"
   xmlns:inkscape="http://www.inkscape.org/namespaces/inkscape"
   xmlns:sodipodi="http://sodipodi.sourceforge.net/DTD/sodipodi-0.dtd"
   xmlns="http://www.w3.org/2000/svg"
   xmlns:svg="http://www.w3.org/2000/svg">
  <defs
     id="defs30" />
  <sodipodi:namedview
     id="namedview28"
     pagecolor="#ffffff"
     bordercolor="#000000"
     borderopacity="0.25"
     inkscape:showpageshadow="2"
     inkscape:pageopacity="0.0"
     inkscape:pagecheckerboard="0"
     inkscape:deskcolor="#d1d1d1"
     showgrid="false"
     inkscape:zoom="50.125"
     inkscape:cx="8.0099751"
     inkscape:cy="8.1296758"
     inkscape:window-width="1810"
     inkscape:window-height="973"
     inkscape:window-x="0"
     inkscape:window-y="0"
     inkscape:window-maximized="1"
     inkscape:current-layer="svg26" />
  <g
     id="g1972"
     transform="matrix(1.6458677,0,0,1.6458677,-9.2816109,-11.750412)"
     style="fill:#afb1b3;fill-opacity:1">
    <rect
       width="1"
       height="1"
       x="9"
       y="8"
       fill="#6e6e6e"
       id="rect4"
       style="fill-rule:evenodd;fill:#afb1b3;fill-opacity:1" />
    <rect
       width="1"
       height="1"
       x="11"
       y="8"
       fill="#6e6e6e"
       id="rect6"
       style="fill-rule:evenodd;fill:#afb1b3;fill-opacity:1" />
    <rect
       width="1"
       height="1"
       x="9"
       y="15"
       fill="#6e6e6e"
       id="rect8"
       style="fill-rule:evenodd;fill:#afb1b3;fill-opacity:1" />
    <rect
       width="1"
       height="1"
       x="11"
       y="15"
       fill="#6e6e6e"
       id="rect10"
       style="fill-rule:evenodd;fill:#afb1b3;fill-opacity:1" />
    <rect
       width="1"
       height="6"
       x="10"
       y="9"
       fill="#6e6e6e"
       id="rect12"
       style="fill-rule:evenodd;fill:#afb1b3;fill-opacity:1" />
  </g>
</svg>
